%YAML 1.1
%TAG !u! tag:unity3d.com,2011:
--- !u!114 &11400000
MonoBehaviour:
  m_ObjectHideFlags: 0
  m_CorrespondingSourceObject: {fileID: 0}
  m_PrefabInstance: {fileID: 0}
  m_PrefabAsset: {fileID: 0}
  m_GameObject: {fileID: 0}
  m_Enabled: 1
  m_EditorHideFlags: 0
  m_Script: {fileID: 11500000, guid: 848409ee8ba454f42a5ddff137688a27, type: 3}
  m_Name: ReferenceImageLibrary
  m_EditorClassIdentifier: 
  m_GuidLow: 5046970340482147098
  m_GuidHigh: 1800455030514824344
  m_Images:
  - m_SerializedGuid:
      m_GuidLow: 5505848957207275500
      m_GuidHigh: 6095982146111703956
    m_SerializedTextureGuid:
      m_GuidLow: 343931315920336878
      m_GuidHigh: 9258889603884982554
    m_Size: {x: 0.1, y: 0.052333333}
    m_SpecifySize: 1
    m_Name: GameObject
    m_Texture: {fileID: 0}
